
{
    "title":"Thing",
    "slides":[
        {
            "image_file_name":"CapeSpearNewfoundland.jpg",
            "image_path":"/Users/Randhawa/Documents/cse 219/HW3- Gauravdeep S Randhawa/SlideshowMaker/images/slide_show_images/",
            "caption":"<ENTER CAPTION>"
        },
        {
            "image_file_name":"BadlandsSouthDakota.jpg",
            "image_path":"/Users/Randhawa/Documents/cse 219/hw3_solutions/SlideShowMaker/images/slide_show_images/",
            "caption":"<ENTER CAPTION>"
        },
        {
            "image_file_name":"YosemiteCalifornia.jpg",
            "image_path":"/Users/Randhawa/Documents/cse 219/hw3_solutions/SlideShowMaker/images/slide_show_images/",
            "caption":"<ENTER CAPTION>"
        },
        {
            "image_file_name":"SaltUtah.jpg",
            "image_path":"/Users/Randhawa/Documents/cse 219/hw3_solutions/SlideShowMaker/images/slide_show_images/",
            "caption":"<ENTER CAPTION>"
        }
    ]
}